{
  "_class": "shapeGroup",
  "clippingMaskMode": 0,
  "do_objectID": "C989AC7D-1A4F-4350-B276-1256233459DE",
  "exportOptions": {
    "_class": "exportOptions",
    "exportFormats": [
    ],
    "includedLayerIds": [
    ],
    "layerOptions": 0,
    "shouldTrim": false
  },
  "frame": {
    "_class": "rect",
    "constrainProportions": false,
    "height": 4,
    "width": 456,
    "x": 0,
    "y": 665
  },
  "hasClickThrough": false,
  "hasClippingMask": false,
  "isFlippedHorizontal": false,
  "isFlippedVertical": false,
  "isLocked": false,
  "isVisible": true,
  "layerListExpandedType": 1,
  "layers": [
    {
      "class": "rectangle",
      "id": "42E15BE4-0A59-4316-A892-D9CF54171780"
    }
  ],
  "name": "Rectangle 5 Copy 2",
  "nameIsFixed": false,
  "resizingConstraint": 63,
  "resizingType": 0,
  "rotation": 0,
  "shouldBreakMaskChain": false,
  "style": {
    "sharedObjectID": "65802A2B-CB02-4F1B-A5DA-C45CA7D3EB92"
  },
  "windingRule": 1
}