{
  "_class": "group",
  "do_objectID": "6EDD7299-BD65-4FA5-91A0-9485C0912EEE",
  "exportOptions": {
    "_class": "exportOptions",
    "exportFormats": [
    ],
    "includedLayerIds": [
    ],
    "layerOptions": 0,
    "shouldTrim": false
  },
  "frame": {
    "_class": "rect",
    "constrainProportions": false,
    "height": 40,
    "width": 220,
    "x": 0,
    "y": 104
  },
  "hasClickThrough": false,
  "isFlippedHorizontal": false,
  "isFlippedVertical": false,
  "isLocked": false,
  "isVisible": true,
  "layerListExpandedType": 0,
  "layers": [
    {
      "class": "group",
      "id": "FBFFDD1B-1932-4D31-931F-377449ABC216"
    },
    {
      "class": "symbolInstance",
      "id": "42B22440-65FB-441F-9D57-7CF0D9240691"
    }
  ],
  "name": "sidebar/molecules/menu-item/",
  "nameIsFixed": false,
  "resizingConstraint": 63,
  "resizingType": 0,
  "rotation": 0,
  "shouldBreakMaskChain": false,
  "style": {
    "_class": "style",
    "endDecorationType": 0,
    "miterLimit": 10,
    "startDecorationType": 0
  }
}