{
  "_class": "group",
  "do_objectID": "E9B099FA-C230-4D24-96E5-1F9A449864FB",
  "exportOptions": {
    "_class": "exportOptions",
    "exportFormats": [
    ],
    "includedLayerIds": [
    ],
    "layerOptions": 0,
    "shouldTrim": false
  },
  "frame": {
    "_class": "rect",
    "constrainProportions": false,
    "height": 40,
    "width": 1500,
    "x": 0,
    "y": 0
  },
  "hasClickThrough": false,
  "isFlippedHorizontal": false,
  "isFlippedVertical": false,
  "isLocked": false,
  "isVisible": true,
  "layerListExpandedType": 0,
  "layers": [
    {
      "class": "shapeGroup",
      "id": "52790446-8B05-4260-A2A0-2DF838CD2B82"
    },
    {
      "class": "group",
      "id": "45AC2BB4-5E3E-45C1-882D-65888C4661E5"
    },
    {
      "class": "group",
      "id": "790E6164-C81A-4878-8F0C-466DEC1697BF"
    }
  ],
  "name": "topbar",
  "nameIsFixed": true,
  "resizingConstraint": 63,
  "resizingType": 0,
  "rotation": 0,
  "shouldBreakMaskChain": false,
  "style": {
    "_class": "style",
    "endDecorationType": 0,
    "miterLimit": 10,
    "startDecorationType": 0
  }
}