{
  "_class": "shapeGroup",
  "clippingMaskMode": 0,
  "do_objectID": "F1624F53-2F20-406E-8142-1F31D6CB5B5B",
  "exportOptions": {
    "_class": "exportOptions",
    "exportFormats": [
    ],
    "includedLayerIds": [
    ],
    "layerOptions": 0,
    "shouldTrim": false
  },
  "frame": {
    "_class": "rect",
    "constrainProportions": false,
    "height": 16.00000000000001,
    "width": 16,
    "x": 0,
    "y": 0
  },
  "hasClickThrough": false,
  "hasClippingMask": true,
  "isFlippedHorizontal": false,
  "isFlippedVertical": false,
  "isLocked": false,
  "isVisible": true,
  "layerListExpandedType": 0,
  "layers": [
    {
      "class": "shapePath",
      "id": "BA5C8661-27B3-4AD9-BC06-7CDC6994E8B5"
    },
    {
      "class": "shapePath",
      "id": "503DFDBA-4878-4F35-A24C-3AC8B978E9C1"
    },
    {
      "class": "shapePath",
      "id": "4F0DA1AB-4B08-488C-ADD8-4BE24AA85FA3"
    },
    {
      "class": "shapePath",
      "id": "568DA1C5-40A1-4C7F-BAFC-901B949C8763"
    },
    {
      "class": "shapePath",
      "id": "1E861C1D-244D-4370-861B-9581DF8E8237"
    },
    {
      "class": "shapePath",
      "id": "2D94CF72-5C6F-4146-A816-4AAB6BBC928D"
    },
    {
      "class": "shapePath",
      "id": "DCBD90F0-C874-4D53-80A2-CA5FF3FB4994"
    }
  ],
  "name": "Mask",
  "nameIsFixed": false,
  "resizingConstraint": 63,
  "resizingType": 0,
  "rotation": 0,
  "shouldBreakMaskChain": false,
  "style": {
    "_class": "style",
    "endDecorationType": 0,
    "fills": [
      {
        "_class": "fill",
        "color": {
          "_class": "color",
          "alpha": 1,
          "blue": 0,
          "green": 0,
          "red": 0
        },
        "fillType": 0,
        "isEnabled": true,
        "noiseIndex": 0,
        "noiseIntensity": 0,
        "patternFillType": 1,
        "patternTileScale": 1
      }
    ],
    "miterLimit": 10,
    "startDecorationType": 0
  },
  "windingRule": 1
}