{
  "_class": "group",
  "do_objectID": "45AC2BB4-5E3E-45C1-882D-65888C4661E5",
  "exportOptions": {
    "_class": "exportOptions",
    "exportFormats": [
    ],
    "includedLayerIds": [
    ],
    "layerOptions": 0,
    "shouldTrim": false
  },
  "frame": {
    "_class": "rect",
    "constrainProportions": false,
    "height": 32,
    "width": 521,
    "x": 971,
    "y": 4
  },
  "hasClickThrough": false,
  "isFlippedHorizontal": false,
  "isFlippedVertical": false,
  "isLocked": false,
  "isVisible": true,
  "layerListExpandedType": 2,
  "layers": [
    {
      "class": "symbolInstance",
      "id": "7A3A94AE-97D7-4CE3-9EC4-90920A387037"
    },
    {
      "class": "symbolInstance",
      "id": "2F1E7868-1868-4C5A-BAFB-63B52427864F"
    },
    {
      "class": "symbolInstance",
      "id": "F124F18C-2A36-44F9-8851-AA04F444AD56"
    },
    {
      "class": "symbolInstance",
      "id": "E7F0D721-4B84-426F-8C61-B42406F0398B"
    },
    {
      "class": "symbolInstance",
      "id": "6DF00125-198F-4C38-AA1B-FD20C5069A59"
    },
    {
      "class": "symbolInstance",
      "id": "CCE69905-99C2-472D-8B0B-1E13B334B01A"
    }
  ],
  "name": "right-aligned",
  "nameIsFixed": true,
  "resizingConstraint": 28,
  "resizingType": 0,
  "rotation": 0,
  "shouldBreakMaskChain": false,
  "style": {
    "_class": "style",
    "endDecorationType": 0,
    "miterLimit": 10,
    "startDecorationType": 0
  }
}